## Interface: 80205
## Title: ReGroup
## Notes: I like trains.
## Author: Mewin
## Version: 0.1.0
## SavedVariables: ReGroupPersistent

ReGroupStatic.lua
ReGroupUtility.lua
ReGroup.lua
ReGroupUI.lua
ReGroupMainFrame.lua
ReGroupImportFrame.lua
ReGroupFrameTemplate.xml
ReGroupButtonTemplates.xml
ReGroupFrames.xml
